{
	"mod_name": "HudToggle",
	"version": "2.0.1",
	"author": "UnShame",
	"chat": [
		{
			"command": "togglehud",
			"execute": "chat/toggle",
			"description": "/togglehud > Toggle HUD, outlines and objective markers"
		}
	],
	"patch": [
		"patch/Hud"
	]
}